%YAML 1.1
%TAG !u! tag:unity3d.com,2011:
--- !u!74 &7400000
AnimationClip:
  m_ObjectHideFlags: 0
  m_CorrespondingSourceObject: {fileID: 0}
  m_PrefabInstance: {fileID: 0}
  m_PrefabAsset: {fileID: 0}
  m_Name: player_yell_right_end
  serializedVersion: 6
  m_Legacy: 0
  m_Compressed: 0
  m_UseHighQualityCurve: 1
  m_RotationCurves: []
  m_CompressedRotationCurves: []
  m_EulerCurves: []
  m_PositionCurves: []
  m_ScaleCurves: []
  m_FloatCurves:
  - curve:
      serializedVersion: 2
      m_Curve:
      - serializedVersion: 3
        time: 0
        value: 1
        inSlope: Infinity
        outSlope: Infinity
        tangentMode: 103
        weightedMode: 0
        inWeight: 0
        outWeight: 0
      m_PreInfinity: 2
      m_PostInfinity: 2
      m_RotationOrder: 4
    attribute: m_FlipX
    path: 
    classID: 212
    script: {fileID: 0}
  m_PPtrCurves:
  - curve:
    - time: 0
      value: {fileID: 2389520996444681117, guid: ff56f7a95d815ac43860668b222e895b,
        type: 3}
    - time: 0.033333335
      value: {fileID: -1810004974244753509, guid: ff56f7a95d815ac43860668b222e895b,
        type: 3}
    - time: 0.083333336
      value: {fileID: -1222283133236960287, guid: ff56f7a95d815ac43860668b222e895b,
        type: 3}
    - time: 0.11666667
      value: {fileID: -8923781669458328761, guid: ff56f7a95d815ac43860668b222e895b,
        type: 3}
    - time: 0.15
      value: {fileID: -269201297627203241, guid: ff56f7a95d815ac43860668b222e895b,
        type: 3}
    - time: 0.2
      value: {fileID: 7683439407312597433, guid: ff56f7a95d815ac43860668b222e895b,
        type: 3}
    - time: 0.23333333
      value: {fileID: -5581442723004147226, guid: ff56f7a95d815ac43860668b222e895b,
        type: 3}
    - time: 0.26666668
      value: {fileID: -1787435672788164851, guid: ff56f7a95d815ac43860668b222e895b,
        type: 3}
    - time: 0.3
      value: {fileID: -2030256021577584020, guid: ff56f7a95d815ac43860668b222e895b,
        type: 3}
    - time: 0.35
      value: {fileID: 6376713305585641099, guid: ff56f7a95d815ac43860668b222e895b,
        type: 3}
    - time: 0.38333333
      value: {fileID: 4796819393037691565, guid: ff56f7a95d815ac43860668b222e895b,
        type: 3}
    - time: 0.41666666
      value: {fileID: 9115978290427953570, guid: ff56f7a95d815ac43860668b222e895b,
        type: 3}
    - time: 0.46666667
      value: {fileID: -6125710652770993252, guid: ff56f7a95d815ac43860668b222e895b,
        type: 3}
    - time: 0.5
      value: {fileID: -6125710652770993252, guid: ff56f7a95d815ac43860668b222e895b,
        type: 3}
    attribute: m_Sprite
    path: 
    classID: 212
    script: {fileID: 0}
  m_SampleRate: 60
  m_WrapMode: 0
  m_Bounds:
    m_Center: {x: 0, y: 0, z: 0}
    m_Extent: {x: 0, y: 0, z: 0}
  m_ClipBindingConstant:
    genericBindings:
    - serializedVersion: 2
      path: 0
      attribute: 555744692
      script: {fileID: 0}
      typeID: 212
      customType: 0
      isPPtrCurve: 0
    - serializedVersion: 2
      path: 0
      attribute: 0
      script: {fileID: 0}
      typeID: 212
      customType: 23
      isPPtrCurve: 1
    pptrCurveMapping:
    - {fileID: 2389520996444681117, guid: ff56f7a95d815ac43860668b222e895b, type: 3}
    - {fileID: -1810004974244753509, guid: ff56f7a95d815ac43860668b222e895b, type: 3}
    - {fileID: -1222283133236960287, guid: ff56f7a95d815ac43860668b222e895b, type: 3}
    - {fileID: -8923781669458328761, guid: ff56f7a95d815ac43860668b222e895b, type: 3}
    - {fileID: -269201297627203241, guid: ff56f7a95d815ac43860668b222e895b, type: 3}
    - {fileID: 7683439407312597433, guid: ff56f7a95d815ac43860668b222e895b, type: 3}
    - {fileID: -5581442723004147226, guid: ff56f7a95d815ac43860668b222e895b, type: 3}
    - {fileID: -1787435672788164851, guid: ff56f7a95d815ac43860668b222e895b, type: 3}
    - {fileID: -2030256021577584020, guid: ff56f7a95d815ac43860668b222e895b, type: 3}
    - {fileID: 6376713305585641099, guid: ff56f7a95d815ac43860668b222e895b, type: 3}
    - {fileID: 4796819393037691565, guid: ff56f7a95d815ac43860668b222e895b, type: 3}
    - {fileID: 9115978290427953570, guid: ff56f7a95d815ac43860668b222e895b, type: 3}
    - {fileID: -6125710652770993252, guid: ff56f7a95d815ac43860668b222e895b, type: 3}
    - {fileID: -6125710652770993252, guid: ff56f7a95d815ac43860668b222e895b, type: 3}
  m_AnimationClipSettings:
    serializedVersion: 2
    m_AdditiveReferencePoseClip: {fileID: 0}
    m_AdditiveReferencePoseTime: 0
    m_StartTime: 0
    m_StopTime: 0.51666665
    m_OrientationOffsetY: 0
    m_Level: 0
    m_CycleOffset: 0
    m_HasAdditiveReferencePose: 0
    m_LoopTime: 1
    m_LoopBlend: 0
    m_LoopBlendOrientation: 0
    m_LoopBlendPositionY: 0
    m_LoopBlendPositionXZ: 0
    m_KeepOriginalOrientation: 0
    m_KeepOriginalPositionY: 1
    m_KeepOriginalPositionXZ: 0
    m_HeightFromFeet: 0
    m_Mirror: 0
  m_EditorCurves:
  - curve:
      serializedVersion: 2
      m_Curve:
      - serializedVersion: 3
        time: 0
        value: 1
        inSlope: Infinity
        outSlope: Infinity
        tangentMode: 103
        weightedMode: 0
        inWeight: 0
        outWeight: 0
      m_PreInfinity: 2
      m_PostInfinity: 2
      m_RotationOrder: 4
    attribute: m_FlipX
    path: 
    classID: 212
    script: {fileID: 0}
  m_EulerEditorCurves: []
  m_HasGenericRootTransform: 0
  m_HasMotionFloatCurves: 0
  m_Events:
  - time: 0
    functionName: InvokeAnimationEvent
    data: 
    objectReferenceParameter: {fileID: 0}
    floatParameter: 0
    intParameter: 0
    messageOptions: 0
  - time: 0.38333333
    functionName: Stop_Clip
    data: 
    objectReferenceParameter: {fileID: 0}
    floatParameter: 1
    intParameter: 0
    messageOptions: 0
  - time: 0.5
    functionName: InvokeAnimationEvent
    data: 
    objectReferenceParameter: {fileID: 0}
    floatParameter: 0
    intParameter: 2
    messageOptions: 0
