%YAML 1.1
%TAG !u! tag:unity3d.com,2011:
--- !u!74 &7400000
AnimationClip:
  m_ObjectHideFlags: 0
  m_CorrespondingSourceObject: {fileID: 0}
  m_PrefabInstance: {fileID: 0}
  m_PrefabAsset: {fileID: 0}
  m_Name: sheep_move_fight_rightt
  serializedVersion: 6
  m_Legacy: 0
  m_Compressed: 0
  m_UseHighQualityCurve: 1
  m_RotationCurves: []
  m_CompressedRotationCurves: []
  m_EulerCurves: []
  m_PositionCurves: []
  m_ScaleCurves: []
  m_FloatCurves:
  - curve:
      serializedVersion: 2
      m_Curve:
      - serializedVersion: 3
        time: 0
        value: 1
        inSlope: Infinity
        outSlope: Infinity
        tangentMode: 103
        weightedMode: 0
        inWeight: 0
        outWeight: 0
      m_PreInfinity: 2
      m_PostInfinity: 2
      m_RotationOrder: 4
    attribute: m_FlipX
    path: 
    classID: 212
    script: {fileID: 0}
  m_PPtrCurves:
  - curve:
    - time: 0
      value: {fileID: -8631954274879315728, guid: a8d395f5cba8c8a428eb17938de1e652,
        type: 3}
    - time: 0.033333335
      value: {fileID: -1821515147034634950, guid: a8d395f5cba8c8a428eb17938de1e652,
        type: 3}
    - time: 0.06666667
      value: {fileID: -8151896599991144819, guid: a8d395f5cba8c8a428eb17938de1e652,
        type: 3}
    - time: 0.11666667
      value: {fileID: -5547449145833160615, guid: a8d395f5cba8c8a428eb17938de1e652,
        type: 3}
    - time: 0.15
      value: {fileID: 5008317094753793921, guid: a8d395f5cba8c8a428eb17938de1e652,
        type: 3}
    - time: 0.18333334
      value: {fileID: -3975543368435700766, guid: a8d395f5cba8c8a428eb17938de1e652,
        type: 3}
    - time: 0.21666667
      value: {fileID: -2320888723904403452, guid: a8d395f5cba8c8a428eb17938de1e652,
        type: 3}
    - time: 0.26666668
      value: {fileID: -8280088125398771317, guid: a8d395f5cba8c8a428eb17938de1e652,
        type: 3}
    - time: 0.3
      value: {fileID: 3604200230282495306, guid: a8d395f5cba8c8a428eb17938de1e652,
        type: 3}
    - time: 0.33333334
      value: {fileID: 6013646624930967304, guid: a8d395f5cba8c8a428eb17938de1e652,
        type: 3}
    - time: 0.36666667
      value: {fileID: -7508354511861116752, guid: a8d395f5cba8c8a428eb17938de1e652,
        type: 3}
    - time: 0.4
      value: {fileID: -7615183876181449781, guid: a8d395f5cba8c8a428eb17938de1e652,
        type: 3}
    - time: 0.45
      value: {fileID: -1533598409906652251, guid: a8d395f5cba8c8a428eb17938de1e652,
        type: 3}
    - time: 0.48333332
      value: {fileID: 8381567335834529936, guid: a8d395f5cba8c8a428eb17938de1e652,
        type: 3}
    - time: 0.51666665
      value: {fileID: -3068402068353964776, guid: a8d395f5cba8c8a428eb17938de1e652,
        type: 3}
    - time: 0.55
      value: {fileID: -7992940584268659904, guid: a8d395f5cba8c8a428eb17938de1e652,
        type: 3}
    - time: 0.6
      value: {fileID: -7168682773546235297, guid: a8d395f5cba8c8a428eb17938de1e652,
        type: 3}
    - time: 0.6333333
      value: {fileID: -368430412876706730, guid: a8d395f5cba8c8a428eb17938de1e652,
        type: 3}
    - time: 0.6666667
      value: {fileID: -368430412876706730, guid: a8d395f5cba8c8a428eb17938de1e652,
        type: 3}
    attribute: m_Sprite
    path: 
    classID: 212
    script: {fileID: 0}
  m_SampleRate: 60
  m_WrapMode: 0
  m_Bounds:
    m_Center: {x: 0, y: 0, z: 0}
    m_Extent: {x: 0, y: 0, z: 0}
  m_ClipBindingConstant:
    genericBindings:
    - serializedVersion: 2
      path: 0
      attribute: 555744692
      script: {fileID: 0}
      typeID: 212
      customType: 0
      isPPtrCurve: 0
    - serializedVersion: 2
      path: 0
      attribute: 0
      script: {fileID: 0}
      typeID: 212
      customType: 23
      isPPtrCurve: 1
    pptrCurveMapping:
    - {fileID: -8631954274879315728, guid: a8d395f5cba8c8a428eb17938de1e652, type: 3}
    - {fileID: -1821515147034634950, guid: a8d395f5cba8c8a428eb17938de1e652, type: 3}
    - {fileID: -8151896599991144819, guid: a8d395f5cba8c8a428eb17938de1e652, type: 3}
    - {fileID: -5547449145833160615, guid: a8d395f5cba8c8a428eb17938de1e652, type: 3}
    - {fileID: 5008317094753793921, guid: a8d395f5cba8c8a428eb17938de1e652, type: 3}
    - {fileID: -3975543368435700766, guid: a8d395f5cba8c8a428eb17938de1e652, type: 3}
    - {fileID: -2320888723904403452, guid: a8d395f5cba8c8a428eb17938de1e652, type: 3}
    - {fileID: -8280088125398771317, guid: a8d395f5cba8c8a428eb17938de1e652, type: 3}
    - {fileID: 3604200230282495306, guid: a8d395f5cba8c8a428eb17938de1e652, type: 3}
    - {fileID: 6013646624930967304, guid: a8d395f5cba8c8a428eb17938de1e652, type: 3}
    - {fileID: -7508354511861116752, guid: a8d395f5cba8c8a428eb17938de1e652, type: 3}
    - {fileID: -7615183876181449781, guid: a8d395f5cba8c8a428eb17938de1e652, type: 3}
    - {fileID: -1533598409906652251, guid: a8d395f5cba8c8a428eb17938de1e652, type: 3}
    - {fileID: 8381567335834529936, guid: a8d395f5cba8c8a428eb17938de1e652, type: 3}
    - {fileID: -3068402068353964776, guid: a8d395f5cba8c8a428eb17938de1e652, type: 3}
    - {fileID: -7992940584268659904, guid: a8d395f5cba8c8a428eb17938de1e652, type: 3}
    - {fileID: -7168682773546235297, guid: a8d395f5cba8c8a428eb17938de1e652, type: 3}
    - {fileID: -368430412876706730, guid: a8d395f5cba8c8a428eb17938de1e652, type: 3}
    - {fileID: -368430412876706730, guid: a8d395f5cba8c8a428eb17938de1e652, type: 3}
  m_AnimationClipSettings:
    serializedVersion: 2
    m_AdditiveReferencePoseClip: {fileID: 0}
    m_AdditiveReferencePoseTime: 0
    m_StartTime: 0
    m_StopTime: 0.68333334
    m_OrientationOffsetY: 0
    m_Level: 0
    m_CycleOffset: 0
    m_HasAdditiveReferencePose: 0
    m_LoopTime: 0
    m_LoopBlend: 0
    m_LoopBlendOrientation: 0
    m_LoopBlendPositionY: 0
    m_LoopBlendPositionXZ: 0
    m_KeepOriginalOrientation: 0
    m_KeepOriginalPositionY: 1
    m_KeepOriginalPositionXZ: 0
    m_HeightFromFeet: 0
    m_Mirror: 0
  m_EditorCurves:
  - curve:
      serializedVersion: 2
      m_Curve:
      - serializedVersion: 3
        time: 0
        value: 1
        inSlope: Infinity
        outSlope: Infinity
        tangentMode: 103
        weightedMode: 0
        inWeight: 0
        outWeight: 0
      m_PreInfinity: 2
      m_PostInfinity: 2
      m_RotationOrder: 4
    attribute: m_FlipX
    path: 
    classID: 212
    script: {fileID: 0}
  m_EulerEditorCurves: []
  m_HasGenericRootTransform: 0
  m_HasMotionFloatCurves: 0
  m_Events:
  - time: 0.18333334
    functionName: InvokeSheepAnimationEvent
    data: 
    objectReferenceParameter: {fileID: 0}
    floatParameter: 0
    intParameter: 1
    messageOptions: 0
